{
  "window.customMenuBarAltFocus": false,
  "terminal.integrated.shell.linux": "/bin/zsh",
  "editor.fontLigatures": true,
  "editor.fontFamily": "Operator Mono SSm Lig Medium",
  "window.zoomLevel": 0,
  "python.jediEnabled": false,
  "editor.renderWhitespace": "all",
  "editor.renderControlCharacters": false,
  "debug.console.fontSize": 13,
  "markdown.preview.fontSize": 13,
  "terminal.integrated.fontSize": 12,
  "breadcrumbs.enabled": false,
  "git.enableSmartCommit": true,
  "explorer.confirmDragAndDrop": false,
  "editor.suggestSelection": "first",
  "vsintellicode.modify.editor.suggestSelection": "automaticallyOverrodeDefaultValue",
  "workbench.iconTheme": "Monokai Pro (Filter Octagon) Icons",
  "workbench.colorCustomizations": {
    "workbench.background": "#0000002f",
  },
  "vim.leader": "<space>",
  "vim.visualModeKeyBindings": [
    {
      "before": [
        "<leader>",
        "<space>"
      ],
      "after": [],
      "commands": [
        {
          "command": "workbench.action.showCommands",
          "args": []
        }
      ]
    },
    {
      "before": [
        "<leader>",
        ";",
        ";"
      ],
      "after": [],
      "commands": [
        {
          "command": "editor.action.commentLine",
          "args": []
        }
      ]
    },
    {
      "before": [
        "f",
        "d"
      ],
      "after": [
        "<Esc>"
      ]
    },
    {
      "before": [
        "<leader>",
        "j",
        "="
      ],
      "after": [],
      "commands": [
        {
          "command": "editor.action.format",
          "args": []
        }
      ]
    }
  ],
  "vim.normalModeKeyBindings": [
    {
      "before": [
        "<leader>",
        "<space>"
      ],
      "after": [],
      "commands": [
        {
          "command": "workbench.action.showCommands",
          "args": []
        }
      ]
    },
    {
      "before": [
        "<leader>",
        "<tab>"
      ],
      "after": [],
      "commands": [
        {
          "command": "workbench.action.openNextRecentlyUsedEditorInGroup",
          "args": []
        }
      ]
    },
    {
      "before": [
        "<leader>",
        ";",
        ";"
      ],
      "after": [],
      "commands": [
        {
          "command": "editor.action.commentLine",
          "args": []
        }
      ]
    },
    {
      "before": [
        "<leader>",
        "'"
      ],
      "after": [],
      "commands": [
        {
          "command": "workbench.action.terminal.toggleTerminal",
          "args": []
        }
      ]
    },
    {
      "before": [
        "<leader>",
        "/"
      ],
      "after": [],
      "commands": [
        {
          "command": "workbench.action.findInFiles",
          "args": []
        }
      ]
    },
    {
      "before": [
        "<leader>",
        "1"
      ],
      "after": [],
      "commands": [
        {
          "command": "workbench.action.focusFirstEditorGroup",
          "args": []
        }
      ]
    },
    {
      "before": [
        "<leader>",
        "2"
      ],
      "after": [],
      "commands": [
        {
          "command": "workbench.action.focusSecondEditorGroup",
          "args": []
        }
      ]
    },
    {
      "before": [
        "<leader>",
        "3"
      ],
      "after": [],
      "commands": [
        {
          "command": "workbench.action.focusThirdEditorGroup",
          "args": []
        }
      ]
    },
    {
      "before": [
        "<leader>",
        "4"
      ],
      "after": [],
      "commands": [
        {
          "command": "workbench.action.focusFourthEditorGroup",
          "args": []
        }
      ]
    },
    {
      "before": [
        "<leader>",
        "5"
      ],
      "after": [],
      "commands": [
        {
          "command": "workbench.action.focusFifthEditorGroup",
          "args": []
        }
      ]
    },
    {
      "before": [
        "<leader>",
        "6"
      ],
      "after": [],
      "commands": [
        {
          "command": "workbench.action.focusSixthEditorGroup",
          "args": []
        }
      ]
    },
    {
      "before": [
        "<leader>",
        "7"
      ],
      "after": [],
      "commands": [
        {
          "command": "workbench.action.focusSeventhEditorGroup",
          "args": []
        }
      ]
    },
    {
      "before": [
        "<leader>",
        "8"
      ],
      "after": [],
      "commands": [
        {
          "command": "workbench.action.focusEighthEditorGroup",
          "args": []
        }
      ]
    },
    {
      "before": [
        "<leader>",
        "b",
        "b"
      ],
      "after": [],
      "commands": [
        {
          "command": "workbench.action.showAllEditors",
          "args": []
        }
      ]
    },
    {
      "before": [
        "<leader>",
        "b",
        "d"
      ],
      "after": [],
      "commands": [
        {
          "command": "workbench.action.closeActiveEditor",
          "args": []
        }
      ]
    },
    {
      "before": [
        "<leader>",
        "b",
        "n"
      ],
      "after": [],
      "commands": [
        {
          "command": "workbench.action.nextEditor",
          "args": []
        }
      ]
    },
    {
      "before": [
        "<leader>",
        "b",
        "p"
      ],
      "after": [],
      "commands": [
        {
          "command": "workbench.action.previousEditor",
          "args": []
        }
      ]
    },
    {
      "before": [
        "<leader>",
        "b",
        "s"
      ],
      "after": [],
      "commands": [
        {
          "command": "workbench.action.files.newUntitledFile",
          "args": []
        }
      ]
    },
    {
      "before": [
        "<leader>",
        "e",
        "l"
      ],
      "after": [],
      "commands": [
        {
          "command": "workbench.actions.view.problems",
          "args": []
        }
      ]
    },
    {
      "before": [
        "<leader>",
        "e",
        "n"
      ],
      "after": [],
      "commands": [
        {
          "command": "editor.action.marker.next",
          "args": []
        }
      ]
    },
    {
      "before": [
        "<leader>",
        "e",
        "p"
      ],
      "after": [],
      "commands": [
        {
          "command": "editor.action.marker.prev",
          "args": []
        }
      ]
    },
    {
      "before": [
        "<leader>",
        "f",
        "e"
      ],
      "after": [],
      "commands": [
        {
          "command": "workbench.action.openGlobalSettings",
          "args": []
        }
      ]
    },
    {
      "before": [
        "<leader>",
        "f",
        "f"
      ],
      "after": [],
      "commands": [
        {
          "command": "workbench.action.files.openFile",
          "args": [],
          "when": "!isMac"
        },
        {
          "command": "workbench.action.files.openFileFolder",
          "args": [],
          "when": "isMac"
        }
      ]
    },
    {
      "before": [
        "<leader>",
        "f",
        "r"
      ],
      "after": [],
      "commands": [
        {
          "command": "workbench.action.openRecent",
          "args": []
        }
      ]
    },
    {
      "before": [
        "<leader>",
        "f",
        "s"
      ],
      "after": [],
      "commands": [
        {
          "command": "workbench.action.files.save",
          "args": []
        }
      ]
    },
    {
      "before": [
        "<leader>",
        "f",
        "t"
      ],
      "after": [],
      "commands": [
        {
          "command": "workbench.view.explorer",
          "args": []
        }
      ]
    },
    {
      "before": [
        "<leader>",
        "f",
        "y"
      ],
      "after": [],
      "commands": [
        {
          "command": "workbench.action.files.copyPathOfActiveFile",
          "args": []
        }
      ]
    },
    {
      "before": [
        "<leader>",
        "g",
        "b"
      ],
      "after": [],
      "commands": [
        {
          "command": "git.checkout",
          "args": []
        }
      ]
    },
    {
      "before": [
        "<leader>",
        "g",
        "c"
      ],
      "after": [],
      "commands": [
        {
          "command": "git.commit",
          "args": []
        }
      ]
    },
    {
      "before": [
        "<leader>",
        "g",
        "d"
      ],
      "after": [],
      "commands": [
        {
          "command": "git.deleteBranch",
          "args": []
        }
      ]
    },
    {
      "before": [
        "<leader>",
        "g",
        "f"
      ],
      "after": [],
      "commands": [
        {
          "command": "git.fetch",
          "args": []
        }
      ]
    },
    {
      "before": [
        "<leader>",
        "g",
        "i"
      ],
      "after": [],
      "commands": [
        {
          "command": "git.init",
          "args": []
        }
      ]
    },
    {
      "before": [
        "<leader>",
        "g",
        "m"
      ],
      "after": [],
      "commands": [
        {
          "command": "git.merge",
          "args": []
        }
      ]
    },
    {
      "before": [
        "<leader>",
        "g",
        "p"
      ],
      "after": [],
      "commands": [
        {
          "command": "git.publish",
          "args": []
        }
      ]
    },
    {
      "before": [
        "<leader>",
        "g",
        "s"
      ],
      "after": [],
      "commands": [
        {
          "command": "workbench.view.scm",
          "args": []
        }
      ]
    },
    {
      "before": [
        "<leader>",
        "g",
        "S"
      ],
      "after": [],
      "commands": [
        {
          "command": "git.stage",
          "args": []
        }
      ]
    },
    {
      "before": [
        "<leader>",
        "g",
        "U"
      ],
      "after": [],
      "commands": [
        {
          "command": "git.unstage",
          "args": []
        }
      ]
    },
    {
      "before": [
        "<leader>",
        "h",
        "d"
      ],
      "after": [],
      "commands": [
        {
          "command": "workbench.action.openGlobalKeybindings",
          "args": []
        }
      ]
    },
    {
      "before": [
        "<leader>",
        "i",
        "s"
      ],
      "after": [],
      "commands": [
        {
          "command": "editor.action.insertSnippet",
          "args": []
        }
      ]
    },
    {
      "before": [
        "<leader>",
        "j",
        "="
      ],
      "after": [],
      "commands": [
        {
          "command": "editor.action.formatDocument",
          "args": []
        }
      ]
    },
    {
      "before": [
        "leader",
        "j",
        "j"
      ],
      "after": [
        "leader",
        "leader",
        "s"
      ]
    },
    {
      "before": [
        "leader",
        "j",
        "l"
      ],
      "after": [
        "leader",
        "leader",
        "leader",
        "b",
        "d",
        "j",
        "k"
      ]
    },
    {
      "before": [
        "leader",
        "j",
        "w"
      ],
      "after": [
        "leader",
        "leader",
        "leader",
        "b",
        "d",
        "w"
      ]
    },
    {
      "before": [
        "<leader>",
        "l",
        "d"
      ],
      "after": [],
      "commands": [
        {
          "command": "workbench.action.closeFolder",
          "args": []
        }
      ]
    },
    {
      "before": [
        "<leader>",
        "p",
        "f"
      ],
      "after": [],
      "commands": [
        {
          "command": "workbench.action.quickOpen",
          "args": []
        }
      ]
    },
    {
      "before": [
        "<leader>",
        "p",
        "l"
      ],
      "after": [],
      "commands": [
        {
          "command": "workbench.action.files.openFolder",
          "args": []
        }
      ]
    },
    {
      "before": [
        "<leader>",
        "p",
        "p"
      ],
      "after": [],
      "commands": [
        {
          "command": "workbench.action.openRecent",
          "args": []
        }
      ]
    },
    {
      "before": [
        "<leader>",
        "p",
        "t"
      ],
      "after": [],
      "commands": [
        {
          "command": "workbench.view.explorer",
          "args": []
        }
      ]
    },
    {
      "before": [
        "<leader>",
        "q",
        "f"
      ],
      "after": [],
      "commands": [
        {
          "command": "workbench.action.closeWindow",
          "args": []
        }
      ]
    },
    {
      "before": [
        "<leader>",
        "q",
        "q"
      ],
      "after": [],
      "commands": [
        {
          "command": "workbench.action.closeWindow",
          "args": []
        }
      ]
    },
    {
      "before": [
        "<leader>",
        "q",
        "r"
      ],
      "after": [],
      "commands": [
        {
          "command": "workbench.action.reloadWindow",
          "args": []
        }
      ]
    },
    {
      "before": [
        "<leader>",
        "r",
        "s"
      ],
      "after": [],
      "commands": [
        {
          "command": "workbench.action.findInFiles",
          "args": []
        }
      ]
    },
    {
      "before": [
        "<leader>",
        "s",
        "e"
      ],
      "after": [],
      "commands": [
        {
          "command": "editor.action.rename",
          "args": []
        }
      ]
    },
    {
      "before": [
        "<leader>",
        "s",
        "j"
      ],
      "after": [],
      "commands": [
        {
          "command": "workbench.action.gotoSymbol",
          "args": []
        }
      ]
    },
    {
      "before": [
        "<leader>",
        "s",
        "p"
      ],
      "after": [],
      "commands": [
        {
          "command": "workbench.action.findInFiles",
          "args": []
        }
      ]
    },
    {
      "before": [
        "<leader>",
        "s",
        "P"
      ],
      "after": [],
      "commands": [
        {
          "command": "workbench.action.findInFilesWithSelectedText",
          "args": []
        }
      ]
    },
    {
      "before": [
        "<leader>",
        "T",
        "F"
      ],
      "after": [],
      "commands": [
        {
          "command": "workbench.action.toggleFullScreen",
          "args": []
        }
      ]
    },
    {
      "before": [
        "<leader>",
        "T",
        "m"
      ],
      "after": [],
      "commands": [
        {
          "command": "workbench.action.toggleMenuBar",
          "args": []
        }
      ]
    },
    {
      "before": [
        "<leader>",
        "T",
        "s"
      ],
      "after": [],
      "commands": [
        {
          "command": "workbench.action.selectTheme",
          "args": []
        }
      ]
    },
    {
      "before": [
        "<leader>",
        "T",
        "t"
      ],
      "after": [],
      "commands": [
        {
          "command": "workbench.action.toggleActivityBarVisibility",
          "args": []
        }
      ]
    },
    {
      "before": [
        "<leader>",
        "v"
      ],
      "after": [],
      "commands": [
        {
          "command": "editor.action.smartSelect.grow",
          "args": []
        }
      ]
    },
    {
      "before": [
        "<leader>",
        "V"
      ],
      "after": [],
      "commands": [
        {
          "command": "editor.action.smartSelect.shrink",
          "args": []
        }
      ]
    },
    {
      "before": [
        "<leader>",
        "w",
        "-"
      ],
      "after": [],
      "commands": [
        {
          "command": "workbench.action.splitEditorDown",
          "args": []
        }
      ]
    },
    {
      "before": [
        "<leader>",
        "w",
        "/"
      ],
      "after": [],
      "commands": [
        {
          "command": "workbench.action.splitEditorRight",
          "args": []
        }
      ]
    },
    {
      "before": [
        "<leader>",
        "w",
        "d"
      ],
      "after": [],
      "commands": [
        {
          "command": "workbench.action.closeEditorsInGroup",
          "args": []
        }
      ]
    },
    {
      "before": [
        "<leader>",
        "w",
        "h"
      ],
      "after": [],
      "commands": [
        {
          "command": "workbench.action.focusPreviousGroup",
          "args": []
        }
      ]
    },
    {
      "before": [
        "<leader>",
        "w",
        "H"
      ],
      "after": [],
      "commands": [
        {
          "command": "workbench.action.moveActiveEditorGroupLeft",
          "args": []
        }
      ]
    },
    {
      "before": [
        "<leader>",
        "w",
        "j"
      ],
      "after": [],
      "commands": [
        {
          "command": "workbench.action.focusBelowGroup",
          "args": []
        }
      ]
    },
    {
      "before": [
        "<leader>",
        "w",
        "k"
      ],
      "after": [],
      "commands": [
        {
          "command": "workbench.action.focusAboveGroup",
          "args": []
        }
      ]
    },
    {
      "before": [
        "<leader>",
        "w",
        "l"
      ],
      "after": [],
      "commands": [
        {
          "command": "workbench.action.focusNextGroup",
          "args": []
        }
      ]
    },
    {
      "before": [
        "<leader>",
        "w",
        "L"
      ],
      "after": [],
      "commands": [
        {
          "command": "workbench.action.moveActiveEditorGroupRight",
          "args": []
        }
      ]
    },
    {
      "before": [
        "<leader>",
        "w",
        "m"
      ],
      "after": [],
      "commands": [
        {
          "command": "workbench.action.maximizeEditor",
          "args": []
        }
      ]
    },
    {
      "before": [
        "<leader>",
        "w",
        "v"
      ],
      "after": [],
      "commands": [
        {
          "command": "workbench.action.splitEditor",
          "args": []
        }
      ]
    },
    {
      "before": [
        "<leader>",
        "w",
        "w"
      ],
      "after": [],
      "commands": [
        {
          "command": "workbench.action.focusNextGroup",
          "args": []
        }
      ]
    },
    {
      "before": [
        "<leader>",
        "w",
        "W"
      ],
      "after": [],
      "commands": [
        {
          "command": "workbench.action.focusPreviousGroup",
          "args": []
        }
      ]
    },
    {
      "before": [
        "<leader>",
        "x",
        "s"
      ],
      "after": [],
      "commands": [
        {
          "command": "editor.action.sortLinesAscending",
          "args": []
        }
      ]
    },
    {
      "before": [
        "<leader>",
        "x",
        "w"
      ],
      "after": [],
      "commands": [
        {
          "command": "editor.action.trimTrailingWhitespace",
          "args": []
        }
      ]
    }
  ],
  "vim.insertModeKeyBindings": [
    {
      "before": [
        "f",
        "d"
      ],
      "after": [
        "<Esc>"
      ]
    }
  ],
  "vim.easymotion": true,
  "[typescript]": {
    "editor.defaultFormatter": "esbenp.prettier-vscode"
  },
  "[typescriptreact]": {
    "editor.defaultFormatter": "esbenp.prettier-vscode"
  },
  "typescript.updateImportsOnFileMove.enabled": "always",
  "[javascript]": {
    "editor.defaultFormatter": "esbenp.prettier-vscode"
  },
  "editor.formatOnSave": true,
  "html.mirrorCursorOnMatchingTag": false,
  "files.exclude": {
    "**/.classpath": true,
    "**/.project": true,
    "**/.settings": true,
    "**/.factorypath": true
  },
  "workbench.colorTheme": "Monokai Pro (Filter Octagon)",
  "editor.fontWeight": "400",
  "editor.fontSize": 15,
  "[html]": {
    "editor.defaultFormatter": "esbenp.prettier-vscode"
  },
  "explorer.confirmDelete": false
}